<svg width="840" height="844" viewBox="0 0 840 844" fill="none" xmlns="http://www.w3.org/2000/svg">
<path d="M420 815C638.152 815 815 638.152 815 420C815 201.848 638.152 25 420 25C201.848 25 25 201.848 25 420C25 638.152 201.848 815 420 815Z" stroke="white" stroke-width="50"/>
<path d="M293.5 345.5C339.892 345.5 377.5 307.668 377.5 261C377.5 214.332 339.892 176.5 293.5 176.5C247.108 176.5 209.5 214.332 209.5 261C209.5 307.668 247.108 345.5 293.5 345.5Z" stroke="white" stroke-width="37"/>
<path fill-rule="evenodd" clip-rule="evenodd" d="M458.902 358.928V163.242H494.539L578.536 293.879V163.242H616.601V358.928H578.536L494.539 228.957V358.928H458.902Z" fill="white"/>
<path fill-rule="evenodd" clip-rule="evenodd" d="M231.662 461.976L289.573 573.42V657.948H328.084V573.42L384.74 461.976H343.98L308.201 532.785L272.499 461.976H231.662Z" fill="white"/>
<path fill-rule="evenodd" clip-rule="evenodd" d="M455.101 470.09L517.322 564.726L451.404 666.27H494.732L537.752 597.215L583.652 666.27H625.637L560.236 564.726L621.893 470.09H579.609L538.52 532.422L497.842 470.09H455.101Z" fill="white"/>
<path fill-rule="evenodd" clip-rule="evenodd" d="M0.133484 2.30667V41.4706L107.969 147.657L143.738 110.395L37.5174 2.30667H0.133484Z" fill="white"/>
<path fill-rule="evenodd" clip-rule="evenodd" d="M839.738 2.30667V41.4706L731.902 147.657L696.133 110.395L802.354 2.30667H839.738Z" fill="white"/>
<path fill-rule="evenodd" clip-rule="evenodd" d="M839.738 843.657V804.493L731.902 698.307L696.133 735.569L802.354 843.657H839.738Z" fill="white"/>
<path fill-rule="evenodd" clip-rule="evenodd" d="M0.133484 843.657V804.493L107.969 698.307L143.738 735.569L37.5174 843.657H0.133484Z" fill="white"/>
</svg>
